…
Create a dataframe and assign it to a new object, where you summarise monthly returns since 2017-01-01 for each of the stocks and SPY; min, max, median, mean, SD.

after_20170101 <- myStocks_returns_monthly %>%
    filter(date >= "2016-12-30")

after_20170101 %>%
  group_by(symbol) %>%
  summarise(Minimum_Perc = min(monthly_returns*100), Maximum_Perc = max(monthly_returns*100), Median_Perc = median(monthly_returns*100), Mean_Perc = mean(monthly_returns*100), Standard_Deviation_Perc = sd(monthly_returns*100))

## # A tibble: 31 x 6
##    symbol Minimum_Perc Maximum_Perc Median_Perc Mean_Perc Standard_Deviation_Pe…
##    <chr>         <dbl>        <dbl>       <dbl>     <dbl>                  <dbl>
##  1 AAPL          -18.1        20.0        4.87     3.89                     8.63
##  2 AMGN          -10.4        18.0        2.35     1.71                     6.56
##  3 AXP           -22.1         9.88       1.56     1.13                     6.32
##  4 BA            -45.8        25.7        2.72     1.29                    11.8 
##  5 CAT           -19.9        13.8        3.14     1.41                     7.37
##  6 CRM           -15.5        39.1        4.02     3.32                     8.50
##  7 CSCO          -15.5        13.0        1.84     1.26                     6.65
##  8 CVX           -22.4        27.0        0.219    0.0318                   7.44
##  9 DIS           -17.9        23.4       -0.110    1.08                     7.46
## 10 DOW           -27.6        25.5        4.56     0.898                   12.8 
## # … with 21 more rows
…
